Working with datasets in R and the {tidyverse}
…
Creating longer data

Let us first talk about creating longer data. In most cases, you will encounter data that is in wide format, this is what is often taught in many disciplines and also necessary to run certain analyses in statistical programs like SPSS. In R, and specifically the tidyverse, working on long data has clear advantages, which we wil be exploring here while we also do the transformations.

As before, we need to start off by making sure we have the tidyverse package loaded, and the penguins dataset ready at hand.

library(tidyverse)
penguins <- palmerpenguins::penguins

In tidyverse, there is a single function to create longer data sets, called pivot_longer. Those of you who might have some prior experience with tidyverse, or you might encounter it when googling for help, might have seen the gather function. This is an older function of similar capabilities which we will not cover here, as the pivot_longer function supersedes it.

penguins %>% 
  pivot_longer(contains("_")) 

## # A tibble: 1,376 x 6
##    species island    sex     year name               value
##    <fct>   <fct>     <fct>  <int> <chr>              <dbl>
##  1 Adelie  Torgersen male    2007 bill_length_mm      39.1
##  2 Adelie  Torgersen male    2007 bill_depth_mm       18.7
##  3 Adelie  Torgersen male    2007 flipper_length_mm  181  
##  4 Adelie  Torgersen male    2007 body_mass_g       3750  
##  5 Adelie  Torgersen female  2007 bill_length_mm      39.5
##  6 Adelie  Torgersen female  2007 bill_depth_mm       17.4
##  7 Adelie  Torgersen female  2007 flipper_length_mm  186  
##  8 Adelie  Torgersen female  2007 body_mass_g       3800  
##  9 Adelie  Torgersen female  2007 bill_length_mm      40.3
## 10 Adelie  Torgersen female  2007 bill_depth_mm       18  
## #  with 1,366 more rows
…
Assignment

2a: Pivot longer all columns containing an underscore (_) in their name.

2b: Pivot the penguins data so that all the bill measurements (starts with bill) are in the same column.

2c: As mentioned, pivot_longer accepts tidy-selectors. Pivot longer all numerical columns.

Solution

# 1a
penguins %>% 
  pivot_longer(contains("_"))

## # A tibble: 1,376 x 6
##    species island    sex     year name               value
##    <fct>   <fct>     <fct>  <int> <chr>              <dbl>
##  1 Adelie  Torgersen male    2007 bill_length_mm      39.1
##  2 Adelie  Torgersen male    2007 bill_depth_mm       18.7
##  3 Adelie  Torgersen male    2007 flipper_length_mm  181  
##  4 Adelie  Torgersen male    2007 body_mass_g       3750  
##  5 Adelie  Torgersen female  2007 bill_length_mm      39.5
##  6 Adelie  Torgersen female  2007 bill_depth_mm       17.4
##  7 Adelie  Torgersen female  2007 flipper_length_mm  186  
##  8 Adelie  Torgersen female  2007 body_mass_g       3800  
##  9 Adelie  Torgersen female  2007 bill_length_mm      40.3
## 10 Adelie  Torgersen female  2007 bill_depth_mm       18  
## #  with 1,366 more rows

# 1b
penguins %>% 
  pivot_longer(starts_with("bill"))

## # A tibble: 688 x 8
##    species island    flipper_length_mm body_mass_g sex    year name        value
##    <fct>   <fct>                 <int>       <int> <fct> <int> <chr>       <dbl>
##  1 Adelie  Torgersen               181        3750 male   2007 bill_lengt  39.1
##  2 Adelie  Torgersen               181        3750 male   2007 bill_depth  18.7
##  3 Adelie  Torgersen               186        3800 fema  2007 bill_lengt  39.5
##  4 Adelie  Torgersen               186        3800 fema  2007 bill_depth  17.4
##  5 Adelie  Torgersen               195        3250 fema  2007 bill_lengt  40.3
##  6 Adelie  Torgersen               195        3250 fema  2007 bill_depth  18  
##  7 Adelie  Torgersen                NA          NA <NA>   2007 bill_lengt  NA  
##  8 Adelie  Torgersen                NA          NA <NA>   2007 bill_depth  NA  
##  9 Adelie  Torgersen               193        3450 fema  2007 bill_lengt  36.7
## 10 Adelie  Torgersen               193        3450 fema  2007 bill_depth  19.3
## #  with 678 more rows

## 1c
penguins %>% 
  pivot_longer(where(is.numeric))

## # A tibble: 1,720 x 5
##    species island    sex    name               value
##    <fct>   <fct>     <fct>  <chr>              <dbl>
##  1 Adelie  Torgersen male   bill_length_mm      39.1
##  2 Adelie  Torgersen male   bill_depth_mm       18.7
##  3 Adelie  Torgersen male   flipper_length_mm  181  
##  4 Adelie  Torgersen male   body_mass_g       3750  
##  5 Adelie  Torgersen male   year              2007  
##  6 Adelie  Torgersen female bill_length_mm      39.5
##  7 Adelie  Torgersen female bill_depth_mm       17.4
##  8 Adelie  Torgersen female flipper_length_mm  186  
##  9 Adelie  Torgersen female body_mass_g       3800  
## 10 Adelie  Torgersen female year              2007  
## #  with 1,710 more rows

Altering names during pivots

While often you can get away with leaving the default naming of the two columns as is, especially if you are just doing something quick like making a plot, most times you will likely want to control the names of your two new columns.

penguins %>% 
  pivot_longer(contains("_"),
               names_to = "columns",
               values_to = "content")

## # A tibble: 1,376 x 6
##    species island    sex     year columns           content
##    <fct>   <fct>     <fct>  <int> <chr>               <dbl>
##  1 Adelie  Torgersen male    2007 bill_length_mm       39.1
##  2 Adelie  Torgersen male    2007 bill_depth_mm        18.7
##  3 Adelie  Torgersen male    2007 flipper_length_mm   181  
##  4 Adelie  Torgersen male    2007 body_mass_g        3750  
##  5 Adelie  Torgersen female  2007 bill_length_mm       39.5
##  6 Adelie  Torgersen female  2007 bill_depth_mm        17.4
##  7 Adelie  Torgersen female  2007 flipper_length_mm   186  
##  8 Adelie  Torgersen female  2007 body_mass_g        3800  
##  9 Adelie  Torgersen female  2007 bill_length_mm       40.3
## 10 Adelie  Torgersen female  2007 bill_depth_mm        18  
## #  with 1,366 more rows

Here, we changes the names to columns and values to content. The pivot defaults are usually quite sensible, making it clear what is the column names and what are the cell values. But English might not be your working language or you might find something more obvious for you self.

But we have even more power in the renaming of columns. Pivots actually have quite a lot of options, making it possible for us to create outputs looking just like we want. Notice how the names of the columns we pivoted follow a specific structure. First is the name of the body part, then the type of measurement, then the unit of the measurement. This clear logic we can use to our advantage.

penguins %>% 
  pivot_longer(contains("_"),
               names_to = c("part", "measure" , "unit"),
               names_sep = "_")

## # A tibble: 1,376 x 8
##    species island    sex     year part    measure unit   value
##    <fct>   <fct>     <fct>  <int> <chr>   <chr>   <chr>  <dbl>
##  1 Adelie  Torgersen male    2007 bill    length  mm      39.1
##  2 Adelie  Torgersen male    2007 bill    depth   mm      18.7
##  3 Adelie  Torgersen male    2007 flipper length  mm     181  
##  4 Adelie  Torgersen male    2007 body    mass    g     3750  
##  5 Adelie  Torgersen female  2007 bill    length  mm      39.5
##  6 Adelie  Torgersen female  2007 bill    depth   mm      17.4
##  7 Adelie  Torgersen female  2007 flipper length  mm     186  
##  8 Adelie  Torgersen female  2007 body    mass    g     3800  
##  9 Adelie  Torgersen female  2007 bill    length  mm      40.3
## 10 Adelie  Torgersen female  2007 bill    depth   mm      18  
## #  with 1,366 more rows
…
3a: Pivot longer all the bill measurements, and alter the names in one go, so that there are three columns named part, measure and unit after the pivot.

3b: Pivot longer all the bill measurements, and use the names_prefix argument. Give it the string bill_. What did that do?

3c: Pivot longer all the bill measurements, and use the names_prefix, names_to and names_sep arguments. What do you need to change in names_to from the previous example to make it work now that we also use names_prefix?

Solution

## 1a
penguins %>% 
  pivot_longer(starts_with("bill"),
               names_to = c("part", "measure" , "unit"),
               names_sep = "_")

## # A tibble: 688 x 10
##    species island   flipper_length_ body_mass_g sex    year part  measure unit 
##    <fct>   <fct>               <int>       <int> <fct> <int> <chr> <chr>   <chr>
##  1 Adelie  Torgers              181        3750 male   2007 bill  length  mm   
##  2 Adelie  Torgers              181        3750 male   2007 bill  depth   mm   
##  3 Adelie  Torgers              186        3800 fema  2007 bill  length  mm   
##  4 Adelie  Torgers              186        3800 fema  2007 bill  depth   mm   
##  5 Adelie  Torgers              195        3250 fema  2007 bill  length  mm   
##  6 Adelie  Torgers              195        3250 fema  2007 bill  depth   mm   
##  7 Adelie  Torgers               NA          NA <NA>   2007 bill  length  mm   
##  8 Adelie  Torgers               NA          NA <NA>   2007 bill  depth   mm   
##  9 Adelie  Torgers              193        3450 fema  2007 bill  length  mm   
## 10 Adelie  Torgers              193        3450 fema  2007 bill  depth   mm   
## #  with 678 more rows, and 1 more variable: value <dbl>

# 1b
penguins %>% 
  pivot_longer(starts_with("bill"),
               names_prefix = "bill_")

## # A tibble: 688 x 8
##    species island    flipper_length_mm body_mass_g sex     year name      value
##    <fct>   <fct>                 <int>       <int> <fct>  <int> <chr>     <dbl>
##  1 Adelie  Torgersen               181        3750 male    2007 length_mm  39.1
##  2 Adelie  Torgersen               181        3750 male    2007 depth_mm   18.7
##  3 Adelie  Torgersen               186        3800 female  2007 length_mm  39.5
##  4 Adelie  Torgersen               186        3800 female  2007 depth_mm   17.4
##  5 Adelie  Torgersen               195        3250 female  2007 length_mm  40.3
##  6 Adelie  Torgersen               195        3250 female  2007 depth_mm   18  
##  7 Adelie  Torgersen                NA          NA <NA>    2007 length_mm  NA  
##  8 Adelie  Torgersen                NA          NA <NA>    2007 depth_mm   NA  
##  9 Adelie  Torgersen               193        3450 female  2007 length_mm  36.7
## 10 Adelie  Torgersen               193        3450 female  2007 depth_mm   19.3
## #  with 678 more rows

## 1c
penguins %>% 
  pivot_longer(starts_with("bill"),
               names_prefix = "bill_",
               names_to = c("bill_measure" , "unit"),
               names_sep = "_")

## # A tibble: 688 x 9
##    species island   flipper_length_mm body_mass_g sex    year bill_measure unit 
##    <fct>   <fct>                <int>       <int> <fct> <int> <chr>        <chr>
##  1 Adelie  Torgers               181        3750 male   2007 length       mm   
##  2 Adelie  Torgers               181        3750 male   2007 depth        mm   
##  3 Adelie  Torgers               186        3800 fema  2007 length       mm   
##  4 Adelie  Torgers               186        3800 fema  2007 depth        mm   
##  5 Adelie  Torgers               195        3250 fema  2007 length       mm   
##  6 Adelie  Torgers               195        3250 fema  2007 depth        mm   
##  7 Adelie  Torgers                NA          NA <NA>   2007 length       mm   
##  8 Adelie  Torgers                NA          NA <NA>   2007 depth        mm   
##  9 Adelie  Torgers               193        3450 fema  2007 length       mm   
## 10 Adelie  Torgers               193        3450 fema  2007 depth        mm   
## #  with 678 more rows, and 1 more variable: value <dbl>

Cleaning up values during pivots.

When pivoting, it is common that quite some NA values appear in the values column. We can remove these immediately by making the argument values_drop_na be TRUE

penguins %>% 
  pivot_longer(starts_with("bill"),
               values_drop_na = TRUE)

## # A tibble: 684 x 8
##    species island    flipper_length_mm body_mass_g sex    year name        value
##    <fct>   <fct>                 <int>       <int> <fct> <int> <chr>       <dbl>
##  1 Adelie  Torgersen               181        3750 male   2007 bill_lengt  39.1
##  2 Adelie  Torgersen               181        3750 male   2007 bill_depth  18.7
##  3 Adelie  Torgersen               186        3800 fema  2007 bill_lengt  39.5
##  4 Adelie  Torgersen               186        3800 fema  2007 bill_depth  17.4
##  5 Adelie  Torgersen               195        3250 fema  2007 bill_lengt  40.3
##  6 Adelie  Torgersen               195        3250 fema  2007 bill_depth  18  
##  7 Adelie  Torgersen               193        3450 fema  2007 bill_lengt  36.7
##  8 Adelie  Torgersen               193        3450 fema  2007 bill_depth  19.3
##  9 Adelie  Torgersen               190        3650 male   2007 bill_lengt  39.3
## 10 Adelie  Torgersen               190        3650 male   2007 bill_depth  20.6
## #  with 674 more rows

This extra argument will ensure that all NA values in the value column are removed. This is some times convenient as we might move on to analyses etc of the data, which often are made more complicated (or impossible) when there is missing data.

We should put everything together and create a new object that is our long formatted penguin data set.

penguins_long <- penguins %>% 
  pivot_longer(contains("_"),
               names_to = c("part", "measure" , "unit"),
               names_sep = "_",
               values_drop_na = TRUE)
penguins_long

## # A tibble: 1,368 x 8
##    species island    sex     year part    measure unit   value
##    <fct>   <fct>     <fct>  <int> <chr>   <chr>   <chr>  <dbl>
##  1 Adelie  Torgersen male    2007 bill    length  mm      39.1
##  2 Adelie  Torgersen male    2007 bill    depth   mm      18.7
##  3 Adelie  Torgersen male    2007 flipper length  mm     181  
##  4 Adelie  Torgersen male    2007 body    mass    g     3750  
##  5 Adelie  Torgersen female  2007 bill    length  mm      39.5
##  6 Adelie  Torgersen female  2007 bill    depth   mm      17.4
##  7 Adelie  Torgersen female  2007 flipper length  mm     186  
##  8 Adelie  Torgersen female  2007 body    mass    g     3800  
##  9 Adelie  Torgersen female  2007 bill    length  mm      40.3
## 10 Adelie  Torgersen female  2007 bill    depth   mm      18  
## #  with 1,358 more rows

Pivoting data wider

While long data formats are ideal when you are working in the tidyverse, you might encounter packages or pipelines in R that require wide-format data. Knowing how to transform a long data set into wide is just as important ad knowing how to go from wide to long. You will also experience that this skill can be convenient when creating data summaries tomorrow.

Before we start using the penguins_longer dataset we made, let us make another simpler longer data set, for the first look a the pivor wider function.

penguins_long_simple <- penguins %>% 
  pivot_longer(contains("_"))
penguins_long_simple

## # A tibble: 1,376 x 6
##    species island    sex     year name               value
##    <fct>   <fct>     <fct>  <int> <chr>              <dbl>
##  1 Adelie  Torgersen male    2007 bill_length_mm      39.1
##  2 Adelie  Torgersen male    2007 bill_depth_mm       18.7
##  3 Adelie  Torgersen male    2007 flipper_length_mm  181  
##  4 Adelie  Torgersen male    2007 body_mass_g       3750  
##  5 Adelie  Torgersen female  2007 bill_length_mm      39.5
##  6 Adelie  Torgersen female  2007 bill_depth_mm       17.4
##  7 Adelie  Torgersen female  2007 flipper_length_mm  186  
##  8 Adelie  Torgersen female  2007 body_mass_g       3800  
##  9 Adelie  Torgersen female  2007 bill_length_mm      40.3
## 10 Adelie  Torgersen female  2007 bill_depth_mm       18  
## #  with 1,366 more rows

penguins_long_simple now contains the lover penguins dataset, with column names in the name column, and values in the value column.

If we want to make this wider again we can try the following:

penguins_long_simple %>% 
  pivot_wider(names_from = name, 
              values_from = value)

## Warning: Values are not uniquely identified; output will contain list-cols.
## * Use `values_fn = list` to suppress this warning.
## * Use `values_fn = length` to identify where the duplicates arise
## * Use `values_fn = {summary_fun}` to summarise duplicates

## # A tibble: 35 x 8
##    species island    sex     year bill_length_mm bill_depth_mm flipper_length_mm
##    <fct>   <fct>     <fct>  <int> <list>         <list>        <list>           
##  1 Adelie  Torgersen male    2007 <dbl [7]>      <dbl [7]>     <dbl [7]>        
##  2 Adelie  Torgersen female  2007 <dbl [8]>      <dbl [8]>     <dbl [8]>        
##  3 Adelie  Torgersen <NA>    2007 <dbl [5]>      <dbl [5]>     <dbl [5]>        
##  4 Adelie  Biscoe    female  2007 <dbl [5]>      <dbl [5]>     <dbl [5]>        
##  5 Adelie  Biscoe    male    2007 <dbl [5]>      <dbl [5]>     <dbl [5]>        
##  6 Adelie  Dream     female  2007 <dbl [9]>      <dbl [9]>     <dbl [9]>        
##  7 Adelie  Dream     male    2007 <dbl [10]>     <dbl [10]>    <dbl [10]>       
##  8 Adelie  Dream     <NA>    2007 <dbl [1]>      <dbl [1]>     <dbl [1]>        
##  9 Adelie  Biscoe    female  2008 <dbl [9]>      <dbl [9]>     <dbl [9]>        
## 10 Adelie  Biscoe    male    2008 <dbl [9]>      <dbl [9]>     <dbl [9]>        
## #  with 25 more rows, and 1 more variable: body_mass_g <list>

ok what is happening here? It does not at all look as we expected! Our columns have something very weird in them, with this strange <dbl [7]> thing, what does that mean? Lets look at the warning message our code gave us and see if we can figure it out. Values are not uniquely identified; output will contain list-cols. We are being told the pivot wider cannot uniquely identify the observations, and so cannot place a single value into the columns. Is returning lists of values.

yikes! Thats super annoying. Lets go back to our penguins data set and see if we can do something to help.

penguins

## # A tibble: 344 x 8
##    species island    bill_length_mm bill_depth_mm flipper_length_mm body_mass_g
##    <fct>   <fct>              <dbl>         <dbl>             <int>       <int>
##  1 Adelie  Torgersen           39.1          18.7               181        3750
##  2 Adelie  Torgersen           39.5          17.4               186        3800
##  3 Adelie  Torgersen           40.3          18                 195        3250
##  4 Adelie  Torgersen           NA            NA                  NA          NA
##  5 Adelie  Torgersen           36.7          19.3               193        3450
##  6 Adelie  Torgersen           39.3          20.6               190        3650
##  7 Adelie  Torgersen           38.9          17.8               181        3625
##  8 Adelie  Torgersen           39.2          19.6               195        4675
##  9 Adelie  Torgersen           34.1          18.1               193        3475
## 10 Adelie  Torgersen           42            20.2               190        4250
## #  with 334 more rows, and 2 more variables: sex <fct>, year <int>
…
