Working with datasets in R and the Tidyverse
…
mutating 1

penguins %>% 
  mutate(
    bill_ratio = bill_depth_mm/bill_length_mm,
    bill_type = ifelse(bill_ratio < .5, "elongated", "stumped")
  ) %>% 
  select(starts_with("bill"))

## # A tibble: 344 x 4
##    bill_length_mm bill_depth_mm bill_ratio bill_type
##             <dbl>         <dbl>      <dbl> <chr>    
##  1           39.1          18.7      0.478 elongated
##  2           39.5          17.4      0.441 elongated
##  3           40.3          18        0.447 elongated
##  4           NA            NA       NA     <NA>     
##  5           36.7          19.3      0.526 stumped  
##  6           39.3          20.6      0.524 stumped  
##  7           38.9          17.8      0.458 elongated
##  8           39.2          19.6      0.5   stumped  
##  9           34.1          18.1      0.531 stumped  
## 10           42            20.2      0.481 elongated
## #  with 334 more rows

mutating 2

penguins %>% 
  mutate(across(ends_with("mm"),
                scale, 
                .names = "sc_{.col}")) %>% 
  select(contains("mm"))

## # A tibble: 344 x 6
##    bill_length_mm bill_depth_mm flipper_length_mm sc_bill_length_mm[,1]
##             <dbl>         <dbl>             <int>                 <dbl>
##  1           39.1          18.7               181                -0.883
##  2           39.5          17.4               186                -0.810
##  3           40.3          18                 195                -0.663
##  4           NA            NA                  NA                NA    
##  5           36.7          19.3               193                -1.32 
##  6           39.3          20.6               190                -0.847
##  7           38.9          17.8               181                -0.920
##  8           39.2          19.6               195                -0.865
##  9           34.1          18.1               193                -1.80 
## 10           42            20.2               190                -0.352
## #  with 334 more rows, and 2 more variables: sc_bill_depth_mm <dbl[,1]>,
## #   sc_flipper_length_mm <dbl[,1]>

pivot longer

penguins_long_simple <- penguins %>% 
  mutate(sample = row_number()) %>% 
  pivot_longer(starts_with("bill"))
penguins_long_simple

## # A tibble: 688 x 9
##    species island  flipper_length_mm body_mass_g sex    year sample name   value
##    <fct>   <fct>               <int>       <int> <fct> <int>  <int> <chr>  <dbl>
##  1 Adelie  Torger               181        3750 male   2007      1 bill_  39.1
##  2 Adelie  Torger               181        3750 male   2007      1 bill_  18.7
##  3 Adelie  Torger               186        3800 fema  2007      2 bill_  39.5
##  4 Adelie  Torger               186        3800 fema  2007      2 bill_  17.4
##  5 Adelie  Torger               195        3250 fema  2007      3 bill_  40.3
##  6 Adelie  Torger               195        3250 fema  2007      3 bill_  18  
##  7 Adelie  Torger                NA          NA <NA>   2007      4 bill_  NA  
##  8 Adelie  Torger                NA          NA <NA>   2007      4 bill_  NA  
##  9 Adelie  Torger               193        3450 fema  2007      5 bill_  36.7
## 10 Adelie  Torger               193        3450 fema  2007      5 bill_  19.3
## #  with 678 more rows

pivot wider

penguins_long_simple %>% 
  pivot_wider(names_from = name,
              values_from = value)

## # A tibble: 344 x 9
##    species island flipper_length_ body_mass_g sex    year sample bill_length_mm
##    <fct>   <fct>             <int>       <int> <fct> <int>  <int>          <dbl>
##  1 Adelie  Torge              181        3750 male   2007      1           39.1
##  2 Adelie  Torge              186        3800 fema  2007      2           39.5
##  3 Adelie  Torge              195        3250 fema  2007      3           40.3
##  4 Adelie  Torge               NA          NA <NA>   2007      4           NA  
##  5 Adelie  Torge              193        3450 fema  2007      5           36.7
##  6 Adelie  Torge              190        3650 male   2007      6           39.3
##  7 Adelie  Torge              181        3625 fema  2007      7           38.9
##  8 Adelie  Torge              195        4675 male   2007      8           39.2
##  9 Adelie  Torge              193        3475 <NA>   2007      9           34.1
## 10 Adelie  Torge              190        4250 <NA>   2007     10           42  
## #  with 334 more rows, and 1 more variable: bill_depth_mm <dbl>
…
penguins %>% 
  group_by(species, island, sex) %>% 
  summarise(across(ends_with("mm"), 
                   .fns = list(mean = mean,
                               sd = sd,
                               min = min,
                               max = max), 
                   na.rm = TRUE),
            n = length(species)
  ) %>% 
  pivot_longer(contains("mm"))

## `summarise()` has grouped output by 'species', 'island'. You can override using the `.groups` argument.

## # A tibble: 156 x 6
## # Groups:   species, island [5]
##    species island sex        n name                    value
##    <chr>   <chr>  <chr>  <int> <chr>                   <dbl>
##  1 Adelie  Biscoe female    22 bill_length_mm_mean     37.4 
##  2 Adelie  Biscoe female    22 bill_length_mm_sd        1.76
##  3 Adelie  Biscoe female    22 bill_length_mm_min      34.5 
##  4 Adelie  Biscoe female    22 bill_length_mm_max      40.5 
##  5 Adelie  Biscoe female    22 bill_depth_mm_mean      17.7 
##  6 Adelie  Biscoe female    22 bill_depth_mm_sd         1.09
##  7 Adelie  Biscoe female    22 bill_depth_mm_min       16   
##  8 Adelie  Biscoe female    22 bill_depth_mm_max       20.7 
##  9 Adelie  Biscoe female    22 flipper_length_mm_mean 187.  
## 10 Adelie  Biscoe female    22 flipper_length_mm_sd     6.74
## #  with 146 more rows
…
## `summarise()` has grouped output by 'species', 'island'. You can override using the `.groups` argument.

## # A tibble: 156 x 9
## # Groups:   species, island [5]
##    species island sex        n part    measurement unit  stat   value
##    <chr>   <chr>  <chr>  <int> <chr>   <chr>       <chr> <chr>  <dbl>
##  1 Adelie  Biscoe female    22 bill    length      mm    mean   37.4 
##  2 Adelie  Biscoe female    22 bill    length      mm    sd      1.76
##  3 Adelie  Biscoe female    22 bill    length      mm    min    34.5 
##  4 Adelie  Biscoe female    22 bill    length      mm    max    40.5 
##  5 Adelie  Biscoe female    22 bill    depth       mm    mean   17.7 
##  6 Adelie  Biscoe female    22 bill    depth       mm    sd      1.09
##  7 Adelie  Biscoe female    22 bill    depth       mm    min    16   
##  8 Adelie  Biscoe female    22 bill    depth       mm    max    20.7 
##  9 Adelie  Biscoe female    22 flipper length      mm    mean  187.  
## 10 Adelie  Biscoe female    22 flipper length      mm    sd      6.74
## #  with 146 more rows
…
## `summarise()` has grouped output by 'species', 'island'. You can override using the `.groups` argument.

## # A tibble: 39 x 11
## # Groups:   species, island [5]
##    species island sex        n part    measurement unit   mean    sd   min   max
##    <chr>   <chr>  <chr>  <int> <chr>   <chr>       <chr> <dbl> <dbl> <dbl> <dbl>
##  1 Adelie  Biscoe female    22 bill    length      mm     37.4 1.76   34.5  40.5
##  2 Adelie  Biscoe female    22 bill    depth       mm     17.7 1.09   16    20.7
##  3 Adelie  Biscoe female    22 flipper length      mm    187.  6.74  172   199  
##  4 Adelie  Biscoe male      22 bill    length      mm     40.6 2.01   37.6  45.6
##  5 Adelie  Biscoe male      22 bill    depth       mm     19.0 0.880  17.2  21.1
##  6 Adelie  Biscoe male      22 flipper length      mm    190.  6.46  180   203  
##  7 Adelie  Dream  female    27 bill    length      mm     36.9 2.09   32.1  42.2
##  8 Adelie  Dream  female    27 bill    depth       mm     17.6 0.897  15.5  19.3
##  9 Adelie  Dream  female    27 flipper length      mm    188.  5.51  178   202  
## 10 Adelie  Dream  male      28 bill    length      mm     40.1 1.75   36.3  44.1
## #  with 29 more rows
…
## `summarise()` has grouped output by 'species', 'island'. You can override using the `.groups` argument.

## # A tibble: 156 x 8
## # Groups:   species, island [5]
##    species island sex    part    measurement unit  stat   value
##    <chr>   <chr>  <chr>  <chr>   <chr>       <chr> <chr>  <dbl>
##  1 Adelie  Biscoe female bill    length      mm    mean   37.4 
##  2 Adelie  Biscoe female bill    length      mm    sd      1.76
##  3 Adelie  Biscoe female bill    length      mm    min    34.5 
##  4 Adelie  Biscoe female bill    length      mm    max    40.5 
##  5 Adelie  Biscoe female bill    depth       mm    mean   17.7 
##  6 Adelie  Biscoe female bill    depth       mm    sd      1.09
##  7 Adelie  Biscoe female bill    depth       mm    min    16   
##  8 Adelie  Biscoe female bill    depth       mm    max    20.7 
##  9 Adelie  Biscoe female flipper length      mm    mean  187.  
## 10 Adelie  Biscoe female flipper length      mm    sd      6.74
## #  with 146 more rows
…
## `summarise()` has grouped output by 'species', 'island'. You can override using the `.groups` argument.

## # A tibble: 39 x 11
## # Groups:   species, island [5]
##    species island sex        n part    measurement unit   mean    sd   min   max
##    <chr>   <chr>  <chr>  <int> <chr>   <chr>       <chr> <dbl> <dbl> <dbl> <dbl>
##  1 Adelie  Biscoe female    22 bill    length      mm     37.4 1.76   34.5  40.5
##  2 Adelie  Biscoe female    22 bill    depth       mm     17.7 1.09   16    20.7
##  3 Adelie  Biscoe female    22 flipper length      mm    187.  6.74  172   199  
##  4 Adelie  Biscoe male      22 bill    length      mm     40.6 2.01   37.6  45.6
##  5 Adelie  Biscoe male      22 bill    depth       mm     19.0 0.880  17.2  21.1
##  6 Adelie  Biscoe male      22 flipper length      mm    190.  6.46  180   203  
##  7 Adelie  Dream  female    27 bill    length      mm     36.9 2.09   32.1  42.2
##  8 Adelie  Dream  female    27 bill    depth       mm     17.6 0.897  15.5  19.3
##  9 Adelie  Dream  female    27 flipper length      mm    188.  5.51  178   202  
## 10 Adelie  Dream  male      28 bill    length      mm     40.1 1.75   36.3  44.1
## #  with 29 more rows
