Working with datasets in R and the Tidyverse
…
## `summarise()` has grouped output by 'species', 'island'. You can override using the `.groups` argument.

## # A tibble: 39 x 11
## # Groups:   species, island [5]
##    species island sex        n part    measurement unit   mean    sd   min   max
##    <chr>   <chr>  <chr>  <int> <chr>   <chr>       <chr> <dbl> <dbl> <dbl> <dbl>
##  1 Adelie  Biscoe female    22 bill    length      mm     37.4 1.76   34.5  40.5
##  2 Adelie  Biscoe female    22 bill    depth       mm     17.7 1.09   16    20.7
##  3 Adelie  Biscoe female    22 flipper length      mm    187.  6.74  172   199  
##  4 Adelie  Biscoe male      22 bill    length      mm     40.6 2.01   37.6  45.6
##  5 Adelie  Biscoe male      22 bill    depth       mm     19.0 0.880  17.2  21.1
##  6 Adelie  Biscoe male      22 flipper length      mm    190.  6.46  180   203  
##  7 Adelie  Dream  female    27 bill    length      mm     36.9 2.09   32.1  42.2
##  8 Adelie  Dream  female    27 bill    depth       mm     17.6 0.897  15.5  19.3
##  9 Adelie  Dream  female    27 flipper length      mm    188.  5.51  178   202  
## 10 Adelie  Dream  male      28 bill    length      mm     40.1 1.75   36.3  44.1
## #  with 29 more rows

While this does work, it seems cumbersome and the end result is still not awesome. We can explore making it better. Pivoting longer is a good idea here, but what if we do it earlier?

penguins %>% 
  pivot_longer(ends_with("mm"))

## # A tibble: 1,032 x 7
##    species island    body_mass_g sex     year name              value
##    <chr>   <chr>           <int> <chr>  <int> <chr>             <dbl>
##  1 Adelie  Torgersen        3750 male    2007 bill_length_mm     39.1
##  2 Adelie  Torgersen        3750 male    2007 bill_depth_mm      18.7
##  3 Adelie  Torgersen        3750 male    2007 flipper_length_mm 181  
##  4 Adelie  Torgersen        3800 female  2007 bill_length_mm     39.5
##  5 Adelie  Torgersen        3800 female  2007 bill_depth_mm      17.4
##  6 Adelie  Torgersen        3800 female  2007 flipper_length_mm 186  
##  7 Adelie  Torgersen        3250 female  2007 bill_length_mm     40.3
##  8 Adelie  Torgersen        3250 female  2007 bill_depth_mm      18  
##  9 Adelie  Torgersen        3250 female  2007 flipper_length_mm 195  
## 10 Adelie  Torgersen          NA <NA>    2007 bill_length_mm     NA  
## #  with 1,022 more rows
…
